{
	"count": 150,
	"next": "https://api.rawg.io/api/games?key=test&search=Mario&page=2",
	"previous": null,
	"results": [
		{
			"id": 28199,
			"slug": "super-mario-odyssey",
			"name": "Super Mario Odyssey",
			"released": "2017-10-27",
			"background_image": "https://media.rawg.io/media/games/267/267bd0dbc839a2f1a2b60e3b5b3b3f6.jpg",
			"rating": 4.51,
			"metacritic": 97,
			"platforms": [
				{
					"platform": {
						"id": 7,
						"name": "Nintendo Switch",
						"slug": "nintendo-switch"
					}
				}
			]
		}
	]
}
